<?xml version="1.0" encoding="utf-8"?>
<!-- Generator: Adobe Illustrator 19.0.0, SVG Export Plug-In . SVG Version: 6.00 Build 0)  -->
<svg version="1.1" id="Layer_1" xmlns="http://www.w3.org/2000/svg" xmlns:xlink="http://www.w3.org/1999/xlink" x="0px" y="0px"
	 viewBox="-74 76 50 50" style="enable-background:new -74 76 50 50;" xml:space="preserve">
<style type="text/css">
	.st0{fill:#FFFFFF;}
</style>
<path class="st0" d="M-49,125.8c-13.6,0-24.8-11.2-24.8-24.8S-62.6,76.2-49,76.2s24.8,11.2,24.8,24.8S-35.4,125.8-49,125.8z
	 M-49,77.8c-12.8,0-23.2,10.4-23.2,23.2s10.4,23.2,23.2,23.2s23.2-10.4,23.2-23.2S-36.2,77.8-49,77.8z"/>
<g transform="translate(0,-952.36218)">
	<path class="st0" d="M-37.7,1044.5h-22.6c-1.1,0-2.1,0.9-2.1,2.1v13.7c0,1.1,0.9,2.1,2.1,2.1h22.6c1.1,0,2.1-0.9,2.1-2.1v-13.7
		C-35.6,1045.4-36.6,1044.5-37.7,1044.5z M-38.5,1046.2l-10.5,8.7l-10.5-8.6L-38.5,1046.2L-38.5,1046.2z M-37.4,1060.2
		c0,0.2-0.1,0.3-0.3,0.3h-22.6c-0.2,0-0.3-0.1-0.3-0.3v-12.6l11,9.1c0.3,0.3,0.8,0.3,1.1,0l11-9.1L-37.4,1060.2L-37.4,1060.2z"/>
</g>
</svg>
